%YAML 1.1
%TAG !u! tag:unity3d.com,2011:
--- !u!74 &7400000
AnimationClip:
  m_ObjectHideFlags: 0
  m_CorrespondingSourceObject: {fileID: 0}
  m_PrefabInstance: {fileID: 0}
  m_PrefabAsset: {fileID: 0}
  m_Name: Teleporter
  serializedVersion: 6
  m_Legacy: 0
  m_Compressed: 0
  m_UseHighQualityCurve: 1
  m_RotationCurves: []
  m_CompressedRotationCurves: []
  m_EulerCurves: []
  m_PositionCurves: []
  m_ScaleCurves: []
  m_FloatCurves: []
  m_PPtrCurves:
  - curve:
    - time: 0.083333336
      value: {fileID: 21300000, guid: 864b3847a7f316f448781019c60f75b3, type: 3}
    - time: 0.16666667
      value: {fileID: 21300000, guid: 864b3847a7f316f448781019c60f75b3, type: 3}
    - time: 0.31666666
      value: {fileID: 21300000, guid: f32f3aa516b281a49806a80ee084f6a2, type: 3}
    - time: 0.46666667
      value: {fileID: 21300000, guid: f32f3aa516b281a49806a80ee084f6a2, type: 3}
    - time: 0.65
      value: {fileID: 21300000, guid: 864b3847a7f316f448781019c60f75b3, type: 3}
    - time: 0.8666667
      value: {fileID: 21300000, guid: 864b3847a7f316f448781019c60f75b3, type: 3}
    - time: 1.0833334
      value: {fileID: 21300000, guid: 864b3847a7f316f448781019c60f75b3, type: 3}
    - time: 1.1
      value: {fileID: 21300000, guid: f32f3aa516b281a49806a80ee084f6a2, type: 3}
    - time: 1.3
      value: {fileID: 21300000, guid: f32f3aa516b281a49806a80ee084f6a2, type: 3}
    - time: 1.5166667
      value: {fileID: 21300000, guid: f32f3aa516b281a49806a80ee084f6a2, type: 3}
    - time: 1.6333333
      value: {fileID: 21300000, guid: f32f3aa516b281a49806a80ee084f6a2, type: 3}
    - time: 1.7166667
      value: {fileID: 21300000, guid: f32f3aa516b281a49806a80ee084f6a2, type: 3}
    - time: 1.7666667
      value: {fileID: 21300000, guid: f32f3aa516b281a49806a80ee084f6a2, type: 3}
    - time: 1.85
      value: {fileID: 21300000, guid: f32f3aa516b281a49806a80ee084f6a2, type: 3}
    - time: 1.9
      value: {fileID: 21300000, guid: 864b3847a7f316f448781019c60f75b3, type: 3}
    - time: 2.0333333
      value: {fileID: 21300000, guid: f32f3aa516b281a49806a80ee084f6a2, type: 3}
    - time: 2.7666667
      value: {fileID: 21300000, guid: f32f3aa516b281a49806a80ee084f6a2, type: 3}
    - time: 3.1833334
      value: {fileID: 21300000, guid: f32f3aa516b281a49806a80ee084f6a2, type: 3}
    - time: 3.65
      value: {fileID: 21300000, guid: 864b3847a7f316f448781019c60f75b3, type: 3}
    attribute: m_Sprite
    path: 
    classID: 212
    script: {fileID: 0}
  m_SampleRate: 60
  m_WrapMode: 0
  m_Bounds:
    m_Center: {x: 0, y: 0, z: 0}
    m_Extent: {x: 0, y: 0, z: 0}
  m_ClipBindingConstant:
    genericBindings:
    - serializedVersion: 2
      path: 0
      attribute: 0
      script: {fileID: 0}
      typeID: 212
      customType: 23
      isPPtrCurve: 1
    pptrCurveMapping:
    - {fileID: 21300000, guid: 864b3847a7f316f448781019c60f75b3, type: 3}
    - {fileID: 21300000, guid: 864b3847a7f316f448781019c60f75b3, type: 3}
    - {fileID: 21300000, guid: f32f3aa516b281a49806a80ee084f6a2, type: 3}
    - {fileID: 21300000, guid: f32f3aa516b281a49806a80ee084f6a2, type: 3}
    - {fileID: 21300000, guid: 864b3847a7f316f448781019c60f75b3, type: 3}
    - {fileID: 21300000, guid: 864b3847a7f316f448781019c60f75b3, type: 3}
    - {fileID: 21300000, guid: 864b3847a7f316f448781019c60f75b3, type: 3}
    - {fileID: 21300000, guid: f32f3aa516b281a49806a80ee084f6a2, type: 3}
    - {fileID: 21300000, guid: f32f3aa516b281a49806a80ee084f6a2, type: 3}
    - {fileID: 21300000, guid: f32f3aa516b281a49806a80ee084f6a2, type: 3}
    - {fileID: 21300000, guid: f32f3aa516b281a49806a80ee084f6a2, type: 3}
    - {fileID: 21300000, guid: f32f3aa516b281a49806a80ee084f6a2, type: 3}
    - {fileID: 21300000, guid: f32f3aa516b281a49806a80ee084f6a2, type: 3}
    - {fileID: 21300000, guid: f32f3aa516b281a49806a80ee084f6a2, type: 3}
    - {fileID: 21300000, guid: 864b3847a7f316f448781019c60f75b3, type: 3}
    - {fileID: 21300000, guid: f32f3aa516b281a49806a80ee084f6a2, type: 3}
    - {fileID: 21300000, guid: f32f3aa516b281a49806a80ee084f6a2, type: 3}
    - {fileID: 21300000, guid: f32f3aa516b281a49806a80ee084f6a2, type: 3}
    - {fileID: 21300000, guid: 864b3847a7f316f448781019c60f75b3, type: 3}
  m_AnimationClipSettings:
    serializedVersion: 2
    m_AdditiveReferencePoseClip: {fileID: 0}
    m_AdditiveReferencePoseTime: 0
    m_StartTime: 0
    m_StopTime: 3.6666667
    m_OrientationOffsetY: 0
    m_Level: 0
    m_CycleOffset: 0
    m_HasAdditiveReferencePose: 0
    m_LoopTime: 1
    m_LoopBlend: 0
    m_LoopBlendOrientation: 0
    m_LoopBlendPositionY: 0
    m_LoopBlendPositionXZ: 0
    m_KeepOriginalOrientation: 0
    m_KeepOriginalPositionY: 1
    m_KeepOriginalPositionXZ: 0
    m_HeightFromFeet: 0
    m_Mirror: 0
  m_EditorCurves: []
  m_EulerEditorCurves: []
  m_HasGenericRootTransform: 0
  m_HasMotionFloatCurves: 0
  m_Events: []
